%YAML 1.1
%TAG !u! tag:unity3d.com,2011:
--- !u!1045 &1
EditorBuildSettings:
  m_ObjectHideFlags: 0
  serializedVersion: 2
  m_Scenes:
  - enabled: 1
    path: Assets/#dev/Scenes/menu.unity
  - enabled: 1
    path: Assets/#dev/Scenes/1.unity
  - enabled: 1
    path: Assets/#dev/Scenes/2.unity
  - enabled: 1
    path: Assets/#dev/Scenes/3.unity
  - enabled: 1
    path: Assets/#dev/Scenes/4.unity
  - enabled: 1
    path: Assets/#dev/Scenes/5.unity
  - enabled: 1
    path: Assets/#dev/Scenes/6.unity
  - enabled: 1
    path: Assets/#dev/Scenes/7.unity
  - enabled: 1
    path: Assets/#dev/Scenes/8.unity
